{
  "version": "15.1.4",
  "vulnerabilities": [
    {
      "id": ":SKIP:",
      "category": "sast",
      "name": "Sensitive Cookie Without 'HttpOnly' Flag",
      "description": "A new cookie is created without the HttpOnly flag set. The HttpOnly flag is a directive to the\nbrowser to make sure that the cookie can not be red by malicious script. When a user is the\ntarget of a \"Cross-Site Scripting\", the attacker would benefit greatly from getting the session\nid for example.\n",
      "cve": "semgrep_id:find_sec_bugs.HTTPONLY_COOKIE:19:22",
      "severity": "Low",
      "scanner": {
        "id": "semgrep",
        "name": "Semgrep"
      },
      "location": {
        "file": "test-CookieHTTPOnly.scala",
        "start_line": 19,
        "end_line": 22
      },
      "identifiers": [
        {
          "type": "semgrep_id",
          "name": "find_sec_bugs.HTTPONLY_COOKIE",
          "value": "find_sec_bugs.HTTPONLY_COOKIE"
        },
        {
          "type": "cwe",
          "name": "CWE-1004",
          "value": "1004",
          "url": "https://cwe.mitre.org/data/definitions/1004.html"
        },
        {
          "type": "find_sec_bugs_type",
          "name": "Find Security Bugs-HTTPONLY_COOKIE",
          "value": "HTTPONLY_COOKIE"
        }
      ]
    },
    {
      "id": ":SKIP:",
      "category": "sast",
      "name": "Sensitive Cookie Without 'HttpOnly' Flag",
      "description": "A new cookie is created without the HttpOnly flag set. The HttpOnly flag is a directive to the\nbrowser to make sure that the cookie can not be red by malicious script. When a user is the\ntarget of a \"Cross-Site Scripting\", the attacker would benefit greatly from getting the session\nid for example.\n",
      "cve": "semgrep_id:find_sec_bugs.HTTPONLY_COOKIE:9:14",
      "severity": "Low",
      "scanner": {
        "id": "semgrep",
        "name": "Semgrep"
      },
      "location": {
        "file": "test-CookieHTTPOnly.scala",
        "start_line": 9,
        "end_line": 14
      },
      "identifiers": [
        {
          "type": "semgrep_id",
          "name": "find_sec_bugs.HTTPONLY_COOKIE",
          "value": "find_sec_bugs.HTTPONLY_COOKIE"
        },
        {
          "type": "cwe",
          "name": "CWE-1004",
          "value": "1004",
          "url": "https://cwe.mitre.org/data/definitions/1004.html"
        },
        {
          "type": "find_sec_bugs_type",
          "name": "Find Security Bugs-HTTPONLY_COOKIE",
          "value": "HTTPONLY_COOKIE"
        }
      ]
    }
  ],
  "scan": {
    "analyzer": {
      "id": "semgrep",
      "name": "Semgrep",
      "url": "https://gitlab.com/gitlab-org/security-products/analyzers/semgrep",
      "vendor": {
        "name": "GitLab"
      },
      "version": ":SKIP:"
    },
    "scanner": {
      "id": "semgrep",
      "name": "Semgrep",
      "url": "https://github.com/returntocorp/semgrep",
      "vendor": {
        "name": "GitLab"
      },
      "version": ":SKIP:"
    },
    "type": "sast",
    "start_time": ":SKIP:",
    "end_time": ":SKIP:",
    "status": "success"
  }
}
