{
  "version": "15.1.4",
  "vulnerabilities": [
    {
      "id": ":SKIP:",
      "category": "sast",
      "name": "Use of potentially dangerous function",
      "description": "App allows self signed or invalid SSL certificates. App is \nvulnerable to MITM attacks. If the app does not verify the \nauthenticity of the server's SSL certificate, an attacker could \nimpersonate the server and intercept sensitive data transmitted \nbetween the app and the server.\nTo fix these security issues, you should ensure proper SSL \ncertificate validation in your Objective-C code. Here's how you \ncan do it:\n```\n- (void)loadSecureURL {\n  NSURL *url = [NSURL URLWithString:@\"https://example.com\"];\n  NSURLRequest *request = [NSURLRequest requestWithURL:url];\n\n  // Create session configuration\n  NSURLSessionConfiguration *configuration = [NSURLSessionConfiguration defaultSessionConfiguration];\n  configuration.TLSMinimumSupportedProtocol = kTLSProtocol12;\n\n  // Create session with configuration\n  NSURLSession *session = [NSURLSession sessionWithConfiguration:configuration];\n\n  // Create data task\n  NSURLSessionDataTask *task = [session dataTaskWithRequest:request completionHandler:^(NSData * _Nullable data, NSURLResponse * _Nullable response, NSError * _Nullable error) {\n      if (error) {\n          NSLog(@\"Error loading URL: %@\", error);\n          // Handle error\n      } else {\n          // Handle response\n          NSLog(@\"Response: %@\", response);\n      }\n  }];\n\n  // Start task\n  [task resume];\n}\n\n```\n",
      "cve": "semgrep_id:mobsf.oc-other-rule-ios_self_signed_ssl:20:20",
      "severity": "Critical",
      "scanner": {
        "id": "semgrep",
        "name": "Semgrep"
      },
      "location": {
        "file": "main.m",
        "start_line": 20
      },
      "identifiers": [
        {
          "type": "semgrep_id",
          "name": "mobsf.oc-other-rule-ios_self_signed_ssl",
          "value": "mobsf.oc-other-rule-ios_self_signed_ssl"
        },
        {
          "type": "cwe",
          "name": "CWE-676",
          "value": "676",
          "url": "https://cwe.mitre.org/data/definitions/676.html"
        },
        {
          "type": "owasp",
          "name": "A06:2021 - Vulnerable and Outdated Components",
          "value": "A06:2021"
        },
        {
          "type": "owasp",
          "name": "A9:2017 - Using Components with Known Vulnerabilities",
          "value": "A9:2017"
        },
        {
          "type": "mobsf_rule_type",
          "name": "mobsf ID oc-other-rule-ios_self_signed_ssl",
          "value": "oc-other-rule-ios_self_signed_ssl"
        }
      ]
    },
    {
      "id": ":SKIP:",
      "category": "sast",
      "name": "Use of potentially dangerous function",
      "description": "App allows self signed or invalid SSL certificates. App is \nvulnerable to MITM attacks. If the app does not verify the \nauthenticity of the server's SSL certificate, an attacker could \nimpersonate the server and intercept sensitive data transmitted \nbetween the app and the server.\nTo fix these security issues, you should ensure proper SSL \ncertificate validation in your Objective-C code. Here's how you \ncan do it:\n```\n- (void)loadSecureURL {\n  NSURL *url = [NSURL URLWithString:@\"https://example.com\"];\n  NSURLRequest *request = [NSURLRequest requestWithURL:url];\n\n  // Create session configuration\n  NSURLSessionConfiguration *configuration = [NSURLSessionConfiguration defaultSessionConfiguration];\n  configuration.TLSMinimumSupportedProtocol = kTLSProtocol12;\n\n  // Create session with configuration\n  NSURLSession *session = [NSURLSession sessionWithConfiguration:configuration];\n\n  // Create data task\n  NSURLSessionDataTask *task = [session dataTaskWithRequest:request completionHandler:^(NSData * _Nullable data, NSURLResponse * _Nullable response, NSError * _Nullable error) {\n      if (error) {\n          NSLog(@\"Error loading URL: %@\", error);\n          // Handle error\n      } else {\n          // Handle response\n          NSLog(@\"Response: %@\", response);\n      }\n  }];\n\n  // Start task\n  [task resume];\n}\n\n```\n",
      "cve": "semgrep_id:mobsf.oc-other-rule-ios_self_signed_ssl:22:22",
      "severity": "Critical",
      "scanner": {
        "id": "semgrep",
        "name": "Semgrep"
      },
      "location": {
        "file": "main.m",
        "start_line": 22
      },
      "identifiers": [
        {
          "type": "semgrep_id",
          "name": "mobsf.oc-other-rule-ios_self_signed_ssl",
          "value": "mobsf.oc-other-rule-ios_self_signed_ssl"
        },
        {
          "type": "cwe",
          "name": "CWE-676",
          "value": "676",
          "url": "https://cwe.mitre.org/data/definitions/676.html"
        },
        {
          "type": "owasp",
          "name": "A06:2021 - Vulnerable and Outdated Components",
          "value": "A06:2021"
        },
        {
          "type": "owasp",
          "name": "A9:2017 - Using Components with Known Vulnerabilities",
          "value": "A9:2017"
        },
        {
          "type": "mobsf_rule_type",
          "name": "mobsf ID oc-other-rule-ios_self_signed_ssl",
          "value": "oc-other-rule-ios_self_signed_ssl"
        }
      ]
    }
  ],
  "scan": {
    "analyzer": {
      "id": "semgrep",
      "name": "Semgrep",
      "url": "https://gitlab.com/gitlab-org/security-products/analyzers/semgrep",
      "vendor": {
        "name": "GitLab"
      },
      "version": ":SKIP:"
    },
    "scanner": {
      "id": "semgrep",
      "name": "Semgrep",
      "url": "https://github.com/returntocorp/semgrep",
      "vendor": {
        "name": "GitLab"
      },
      "version": ":SKIP:"
    },
    "type": "sast",
    "start_time": ":SKIP:",
    "end_time": ":SKIP:",
    "status": "success"
  }
}
